{
	"clients": [
		{
			"name": "Cliente 1",
			"variables": [
				{
					"key": "variavel1",
					"value": "block"
				},
				{
					"key": "variavel2",
					"value": "red"
				}
			]
		},
		{
			"name": "Cliente 2",
			"variables": [
				{
					"key": "variavel1",
					"value": "none"
				},
				{
					"key": "variavel2",
					"value": "blue"
				}
			]
		} 
	],
	"variables": [
		{
			"key": "variavel1",
			"default": "block"
		},
		{
			"key": "variavel2",
			"default": "#fff"
		}
	]
}